Assignment 8
…
## Rows: 156838 Columns: 8

## -- Column specification --------------------------------------------------------
## Delimiter: ","
## chr  (3): Country_code, Country, WHO_region
## dbl  (4): New_cases, Cumulative_cases, New_deaths, Cumulative_deaths
## date (1): Date_reported

## 
## i Use `spec()` to retrieve the full column specification for this data.
## i Specify the column types or set `show_col_types = FALSE` to quiet this message.

df_covid

## # A tibble: 156,838 x 8
##    Date_reported Country_code Country     WHO_region New_cases Cumulative_cases
##    <date>        <chr>        <chr>       <chr>          <dbl>            <dbl>
##  1 2020-01-03    AF           Afghanistan EMRO               0                0
##  2 2020-01-04    AF           Afghanistan EMRO               0                0
##  3 2020-01-05    AF           Afghanistan EMRO               0                0
##  4 2020-01-06    AF           Afghanistan EMRO               0                0
##  5 2020-01-07    AF           Afghanistan EMRO               0                0
##  6 2020-01-08    AF           Afghanistan EMRO               0                0
##  7 2020-01-09    AF           Afghanistan EMRO               0                0
##  8 2020-01-10    AF           Afghanistan EMRO               0                0
##  9 2020-01-11    AF           Afghanistan EMRO               0                0
## 10 2020-01-12    AF           Afghanistan EMRO               0                0
## # ... with 156,828 more rows, and 2 more variables: New_deaths <dbl>,
## #   Cumulative_deaths <dbl>

df_covid$month <- month(df_covid$Date_reported)

d1 <- df_covid %>% group_by(month, Country_code) %>% summarise(sum = sum(New_deaths))

## `summarise()` has grouped output by 'month'. You can override using the `.groups` argument.

d1 <- d1 %>% group_by(month) %>% mutate(rank=rank(-sum)) %>% ungroup()
d1 <- d1 %>% filter(rank <= 10)
d1

## # A tibble: 120 x 4
##    month Country_code    sum  rank
##    <dbl> <chr>         <dbl> <dbl>
##  1     1 BR            29985     4
##  2     1 DE            23874     5
##  3     1 ES            10968    10
##  4     1 FR            11462     9
##  5     1 GB            33023     2
##  6     1 IT            14675     8
##  7     1 MX            32734     3
##  8     1 RU            16163     6
##  9     1 US           104266     1
## 10     1 ZA            15918     7
## # ... with 110 more rows
…
## 
##  AFRO  AMRO  EMRO  EURO Other SEARO  WPRO 
## 33100 37016 14564 41044   662  7282 23170

Make another bar race using that dataset.

d2 <- df_covid %>% group_by(month, WHO_region) %>% summarise(sum = sum(New_cases))

## `summarise()` has grouped output by 'month'. You can override using the `.groups` argument.

d2 <- d2 %>% group_by(month) %>% mutate(rank=rank(-sum)) %>% ungroup()
d2 <- d2 %>% filter(rank <= 10)
d2

## # A tibble: 84 x 4
##    month WHO_region     sum  rank
##    <dbl> <chr>        <dbl> <dbl>
##  1     1 AFRO        675007     5
##  2     1 AMRO       9923286     1
##  3     1 EMRO        757657     4
##  4     1 EURO       7180271     2
##  5     1 Other            0     7
##  6     1 SEARO       897228     3
##  7     1 WPRO        342157     6
##  8     2 AFRO        269744     6
##  9     2 AMRO       4980483     1
## 10     2 EMRO        718917     3
## # ... with 74 more rows
…
Make a bar race using a dataset of your own interest. You may use the dataset that we use in class (https://covidtracking.com/data/download/all-states-history.csv) but you should make a different bar racev from ones in the slides.

df_basketball <- read_csv('C:/Users/student/Downloads/nba2021_advanced.csv', show_col_types = FALSE)
df_basketball

## # A tibble: 497 x 26
##    Player   Pos     Age Tm        G    MP   PER `TS%` `3PAr`   FTr `ORB%` `DRB%`
##    <chr>    <chr> <dbl> <chr> <dbl> <dbl> <dbl> <dbl>  <dbl> <dbl>  <dbl>  <dbl>
##  1 Preciou~ PF       21 MIA      28   408  15.1 0.599  0     0.541   10.5   19.8
##  2 Jaylen ~ PG       24 MIL       6    17  -6.9 0.125  0.25  0        0     18.2
##  3 Steven ~ C        27 NOP      27   760  15.9 0.592  0.006 0.397   16.9   18  
##  4 Bam Ade~ C        23 MIA      26   873  22.7 0.641  0.015 0.469    6.8   23.2
##  5 LaMarcu~ C        35 SAS      18   480  15.2 0.542  0.298 0.093    3.2   14  
##  6 Ty-Shon~ SG       22 PHO       3     8 -11.9 0      0.333 0        0     13.6
##  7 Nickeil~ SG       22 NOP      23   441  12   0.502  0.463 0.17     1.3   14.1
##  8 Grayson~ SG       25 MEM      19   454  14   0.63   0.721 0.264    1.7   12  
##  9 Jarrett~ C        22 TOT      28   734  22.5 0.695  0.021 0.695   12.6   25.5
## 10 Jarrett~ C        22 BRK      12   320  21.3 0.73   0     0.938   14.2   28.8
## # ... with 487 more rows, and 14 more variables: TRB% <dbl>, AST% <dbl>,
## #   STL% <dbl>, BLK% <dbl>, TOV% <dbl>, USG% <dbl>, OWS <dbl>, DWS <dbl>,
## #   WS <dbl>, WS/48 <dbl>, OBPM <dbl>, DBPM <dbl>, BPM <dbl>, VORP <dbl>
…
## 
## ATL BOS BRK CHI CHO CLE DAL DEN DET GSW HOU IND LAC LAL MEM MIA MIL MIN NOP NYK 
##  16  16  19  17  14  18  17  16  18  15  18  17  15  16  14  16  15  16  15  18 
## OKC ORL PHI PHO POR SAC SAS TOR TOT UTA WAS 
##  15  18  17  16  14  16  16  16   8  16  19

d3 <- df_basketball %>% group_by(Tm, Pos) %>% summarise(mean = mean(PER))

## `summarise()` has grouped output by 'Tm'. You can override using the `.groups` argument.

d3 <- d3 %>% group_by(Tm) %>% mutate(rank=rank(-mean)) %>% ungroup()
d3 <- d3 %>% filter(rank <= 10)
d3

## # A tibble: 161 x 4
##    Tm    Pos    mean  rank
##    <chr> <chr> <dbl> <dbl>
##  1 ATL   C      14.2     1
##  2 ATL   PF     13.8     2
##  3 ATL   PG     13.3     4
##  4 ATL   SF     13.4     3
##  5 ATL   SG     12.1     5
##  6 BOS   C      20.7     1
##  7 BOS   PF     10.3     5
##  8 BOS   PG     10.6     4
##  9 BOS   SF     12.9     3
## 10 BOS   SG     14.8     2
## # ... with 151 more rows
…
