Assignment 9
…
## Rows: 156838 Columns: 8

## -- Column specification --------------------------------------------------------
## Delimiter: ","
## chr  (3): Country_code, Country, WHO_region
## dbl  (4): New_cases, Cumulative_cases, New_deaths, Cumulative_deaths
## date (1): Date_reported

## 
## i Use `spec()` to retrieve the full column specification for this data.
## i Specify the column types or set `show_col_types = FALSE` to quiet this message.

df_covid

## # A tibble: 156,838 x 8
##    Date_reported Country_code Country     WHO_region New_cases Cumulative_cases
##    <date>        <chr>        <chr>       <chr>          <dbl>            <dbl>
##  1 2020-01-03    AF           Afghanistan EMRO               0                0
##  2 2020-01-04    AF           Afghanistan EMRO               0                0
##  3 2020-01-05    AF           Afghanistan EMRO               0                0
##  4 2020-01-06    AF           Afghanistan EMRO               0                0
##  5 2020-01-07    AF           Afghanistan EMRO               0                0
##  6 2020-01-08    AF           Afghanistan EMRO               0                0
##  7 2020-01-09    AF           Afghanistan EMRO               0                0
##  8 2020-01-10    AF           Afghanistan EMRO               0                0
##  9 2020-01-11    AF           Afghanistan EMRO               0                0
## 10 2020-01-12    AF           Afghanistan EMRO               0                0
## # ... with 156,828 more rows, and 2 more variables: New_deaths <dbl>,
## #   Cumulative_deaths <dbl>
…
## Rows: 104170 Columns: 13

## -- Column specification --------------------------------------------------------
## Delimiter: ","
## chr  (4): Province_State, Vaccine_Type, Country_Region, Combined_Key
## dbl  (8): FIPS, Lat, Long_, Doses_alloc, Doses_shipped, Doses_admin, Stage_O...
## date (1): Date

## 
## i Use `spec()` to retrieve the full column specification for this data.
## i Specify the column types or set `show_col_types = FALSE` to quiet this message.

df_vaccine

## # A tibble: 104,170 x 13
##    Province_State Date       Vaccine_Type  FIPS Country_Region   Lat Long_
##    <chr>          <date>     <chr>        <dbl> <chr>          <dbl> <dbl>
##  1 Alabama        2020-12-10 All              1 US              32.3 -86.9
##  2 Alabama        2020-12-10 Moderna          1 US              32.3 -86.9
##  3 Alabama        2020-12-10 Pfizer           1 US              32.3 -86.9
##  4 Alabama        2020-12-11 All              1 US              32.3 -86.9
##  5 Alabama        2020-12-11 Moderna          1 US              32.3 -86.9
##  6 Alabama        2020-12-11 Pfizer           1 US              32.3 -86.9
##  7 Alabama        2020-12-12 All              1 US              32.3 -86.9
##  8 Alabama        2020-12-12 Moderna          1 US              32.3 -86.9
##  9 Alabama        2020-12-12 Pfizer           1 US              32.3 -86.9
## 10 Alabama        2020-12-13 All              1 US              32.3 -86.9
## # ... with 104,160 more rows, and 6 more variables: Doses_alloc <dbl>,
## #   Doses_shipped <dbl>, Doses_admin <dbl>, Stage_One_Doses <dbl>,
## #   Stage_Two_Doses <dbl>, Combined_Key <chr>
…
