Assignment6
…
## Warning: package 'stringr' was built under R version 4.0.5

## Warning: package 'forcats' was built under R version 4.0.5

## -- Conflicts ------------------------------------------ tidyverse_conflicts() --
## x dplyr::filter() masks stats::filter()
## x dplyr::lag()    masks stats::lag()

# Link: https://www.kaggle.com/umutalpaydn/nba-20202021-season-player-stats
setwd("C:/Users/student/Downloads")
df_basketball <- read_csv('nba2021_advanced.csv', show_col_types = FALSE)
df_basketball

## # A tibble: 497 x 26
##    Player   Pos     Age Tm        G    MP   PER `TS%` `3PAr`   FTr `ORB%` `DRB%`
##    <chr>    <chr> <dbl> <chr> <dbl> <dbl> <dbl> <dbl>  <dbl> <dbl>  <dbl>  <dbl>
##  1 Preciou~ PF       21 MIA      28   408  15.1 0.599  0     0.541   10.5   19.8
##  2 Jaylen ~ PG       24 MIL       6    17  -6.9 0.125  0.25  0        0     18.2
##  3 Steven ~ C        27 NOP      27   760  15.9 0.592  0.006 0.397   16.9   18  
##  4 Bam Ade~ C        23 MIA      26   873  22.7 0.641  0.015 0.469    6.8   23.2
##  5 LaMarcu~ C        35 SAS      18   480  15.2 0.542  0.298 0.093    3.2   14  
##  6 Ty-Shon~ SG       22 PHO       3     8 -11.9 0      0.333 0        0     13.6
##  7 Nickeil~ SG       22 NOP      23   441  12   0.502  0.463 0.17     1.3   14.1
##  8 Grayson~ SG       25 MEM      19   454  14   0.63   0.721 0.264    1.7   12  
##  9 Jarrett~ C        22 TOT      28   734  22.5 0.695  0.021 0.695   12.6   25.5
## 10 Jarrett~ C        22 BRK      12   320  21.3 0.73   0     0.938   14.2   28.8
## # ... with 487 more rows, and 14 more variables: TRB% <dbl>, AST% <dbl>,
## #   STL% <dbl>, BLK% <dbl>, TOV% <dbl>, USG% <dbl>, OWS <dbl>, DWS <dbl>,
## #   WS <dbl>, WS/48 <dbl>, OBPM <dbl>, DBPM <dbl>, BPM <dbl>, VORP <dbl>
…
## Rows: 99778 Columns: 13

## -- Column specification --------------------------------------------------------
## Delimiter: ","
## chr  (4): Province_State, Vaccine_Type, Country_Region, Combined_Key
## dbl  (8): FIPS, Lat, Long_, Doses_alloc, Doses_shipped, Doses_admin, Stage_O...
## date (1): Date

## 
## i Use `spec()` to retrieve the full column specification for this data.
## i Specify the column types or set `show_col_types = FALSE` to quiet this message.

df_vaccine

## # A tibble: 99,778 x 13
##    Province_State Date       Vaccine_Type  FIPS Country_Region   Lat Long_
##    <chr>          <date>     <chr>        <dbl> <chr>          <dbl> <dbl>
##  1 Alabama        2020-12-10 All              1 US              32.3 -86.9
##  2 Alabama        2020-12-10 Moderna          1 US              32.3 -86.9
##  3 Alabama        2020-12-10 Pfizer           1 US              32.3 -86.9
##  4 Alabama        2020-12-11 All              1 US              32.3 -86.9
##  5 Alabama        2020-12-11 Moderna          1 US              32.3 -86.9
##  6 Alabama        2020-12-11 Pfizer           1 US              32.3 -86.9
##  7 Alabama        2020-12-12 All              1 US              32.3 -86.9
##  8 Alabama        2020-12-12 Moderna          1 US              32.3 -86.9
##  9 Alabama        2020-12-12 Pfizer           1 US              32.3 -86.9
## 10 Alabama        2020-12-13 All              1 US              32.3 -86.9
## # ... with 99,768 more rows, and 6 more variables: Doses_alloc <dbl>,
## #   Doses_shipped <dbl>, Doses_admin <dbl>, Stage_One_Doses <dbl>,
## #   Stage_Two_Doses <dbl>, Combined_Key <chr>
…
